// Jest Snapshot v1, https://goo.gl/fbAQLP

exports[`Tests of PlaceMarkerPopUp The text should be correct 1`] = `
ShallowWrapper {
  Symbol(enzyme.__root__): [Circular],
  Symbol(enzyme.__unrendered__): <MarkerPlacePopUp
    onCloseClick={[Function]}
    place={
      Object {
        "gallery": "https://link-to-gallery.google.pl",
        "latitude": 50.0646501,
        "longitude": 19.9449799,
        "name": "Cracow",
      }
    }
  />,
  Symbol(enzyme.__renderer__): Object {
    "batchedUpdates": [Function],
    "getNode": [Function],
    "render": [Function],
    "simulateError": [Function],
    "simulateEvent": [Function],
    "unmount": [Function],
  },
  Symbol(enzyme.__node__): Object {
    "instance": null,
    "key": undefined,
    "nodeType": "host",
    "props": Object {
      "children": <InfoWindow
        onCloseClick={[Function]}
      >
        <PresentingView
          onEditClickCallback={[Function]}
          place={
            Object {
              "gallery": "https://link-to-gallery.google.pl",
              "latitude": 50.0646501,
              "longitude": 19.9449799,
              "name": "Cracow",
            }
          }
        />
      </InfoWindow>,
    },
    "ref": null,
    "rendered": Object {
      "instance": null,
      "key": undefined,
      "nodeType": "class",
      "props": Object {
        "children": <PresentingView
          onEditClickCallback={[Function]}
          place={
            Object {
              "gallery": "https://link-to-gallery.google.pl",
              "latitude": 50.0646501,
              "longitude": 19.9449799,
              "name": "Cracow",
            }
          }
        />,
        "onCloseClick": [Function],
      },
      "ref": null,
      "rendered": Object {
        "instance": null,
        "key": undefined,
        "nodeType": "class",
        "props": Object {
          "onEditClickCallback": [Function],
          "place": Object {
            "gallery": "https://link-to-gallery.google.pl",
            "latitude": 50.0646501,
            "longitude": 19.9449799,
            "name": "Cracow",
          },
        },
        "ref": null,
        "rendered": null,
        "type": [Function],
      },
      "type": [Function],
    },
    "type": "div",
  },
  Symbol(enzyme.__nodes__): Array [
    Object {
      "instance": null,
      "key": undefined,
      "nodeType": "host",
      "props": Object {
        "children": <InfoWindow
          onCloseClick={[Function]}
        >
          <PresentingView
            onEditClickCallback={[Function]}
            place={
              Object {
                "gallery": "https://link-to-gallery.google.pl",
                "latitude": 50.0646501,
                "longitude": 19.9449799,
                "name": "Cracow",
              }
            }
          />
        </InfoWindow>,
      },
      "ref": null,
      "rendered": Object {
        "instance": null,
        "key": undefined,
        "nodeType": "class",
        "props": Object {
          "children": <PresentingView
            onEditClickCallback={[Function]}
            place={
              Object {
                "gallery": "https://link-to-gallery.google.pl",
                "latitude": 50.0646501,
                "longitude": 19.9449799,
                "name": "Cracow",
              }
            }
          />,
          "onCloseClick": [Function],
        },
        "ref": null,
        "rendered": Object {
          "instance": null,
          "key": undefined,
          "nodeType": "class",
          "props": Object {
            "onEditClickCallback": [Function],
            "place": Object {
              "gallery": "https://link-to-gallery.google.pl",
              "latitude": 50.0646501,
              "longitude": 19.9449799,
              "name": "Cracow",
            },
          },
          "ref": null,
          "rendered": null,
          "type": [Function],
        },
        "type": [Function],
      },
      "type": "div",
    },
  ],
  Symbol(enzyme.__options__): Object {
    "adapter": ReactSixteenAdapter {
      "options": Object {
        "enableComponentDidUpdateOnSetState": true,
        "lifecycles": Object {
          "componentDidUpdate": Object {
            "onSetState": true,
          },
          "getDerivedStateFromProps": true,
          "getSnapshotBeforeUpdate": true,
          "setState": Object {
            "skipsComponentDidUpdateOnNullish": true,
          },
        },
      },
    },
    "attachTo": undefined,
    "hydrateIn": undefined,
  },
}
`;
